label,area,perimeter,eccentricity,feret_diameter_max,centroid-0,centroid-1,equivalent_diameter_area,axis_minor_length,axis_major_length,filename
1,10238,376.0904037956216,0.20267370541467475,116.72617529928752,317.4356319593671,309.061633131471,114.17279211352675,112.99947041982266,115.39432652740368,hct116_5_cp_masks.tif
2,8904,350.43354954612926,0.34798069719604247,111.80339887498948,452.8582659478886,1256.3769092542677,106.47499662513208,103.11842827930717,109.9927909064758,hct116_5_cp_masks.tif
3,8275,337.4629867976521,0.2972979909710866,106.23088063270491,526.3578247734139,571.1499697885197,102.64529815185628,100.30956604909252,105.05987536361846,hct116_5_cp_masks.tif
4,6397,297.32085117392114,0.23092781589476585,93.17188417113823,622.4935125840237,828.3292168203845,90.24917377832794,89.05396910276805,91.52788684492437,hct116_5_cp_masks.tif
5,7607,324.2914139223983,0.16396641097157666,100.89598604503551,806.4570790061786,633.2675167608782,98.41510664933703,97.77349210723456,99.11492114043224,hct116_5_cp_masks.tif
